<?xml version="1.0" encoding="UTF-8" standalone="no"?>
<svg
   xmlns:dc="http://purl.org/dc/elements/1.1/"
   xmlns:cc="http://creativecommons.org/ns#"
   xmlns:rdf="http://www.w3.org/1999/02/22-rdf-syntax-ns#"
   xmlns:svg="http://www.w3.org/2000/svg"
   xmlns="http://www.w3.org/2000/svg"
   xmlns:sodipodi="http://sodipodi.sourceforge.net/DTD/sodipodi-0.dtd"
   xmlns:inkscape="http://www.inkscape.org/namespaces/inkscape"
   width="132.70103mm"
   height="118.87937mm"
   viewBox="0 0 132.70103 118.87937"
   version="1.1"
   id="svg848"
   inkscape:version="1.0.1 (3bc2e813f5, 2020-09-07)"
   sodipodi:docname="v_for_vanestarre.svg">
  <defs
     id="defs842">
    <filter
       inkscape:collect="always"
       style="color-interpolation-filters:sRGB"
       id="filter1419"
       x="-1.8540118e-06"
       width="1.0000037"
       y="-1.2802348e-06"
       height="1.0000026">
      <feGaussianBlur
         inkscape:collect="always"
         stdDeviation="5.8905864e-05"
         id="feGaussianBlur1421" />
    </filter>
    <filter
       inkscape:collect="always"
       style="color-interpolation-filters:sRGB"
       id="filter1423"
       x="-1.8748811e-06"
       width="1.0000037"
       y="-1.2748867e-06"
       height="1.0000025">
      <feGaussianBlur
         inkscape:collect="always"
         stdDeviation="5.8905864e-05"
         id="feGaussianBlur1425" />
    </filter>
  </defs>
  <sodipodi:namedview
     id="base"
     pagecolor="#ffffff"
     bordercolor="#666666"
     borderopacity="1.0"
     inkscape:pageopacity="0.0"
     inkscape:pageshadow="2"
     inkscape:zoom="0.49497475"
     inkscape:cx="86.623938"
     inkscape:cy="192.42034"
     inkscape:document-units="mm"
     inkscape:current-layer="layer1"
     inkscape:document-rotation="0"
     showgrid="false"
     inkscape:window-width="1920"
     inkscape:window-height="1006"
     inkscape:window-x="0"
     inkscape:window-y="0"
     inkscape:window-maximized="1" />
  <metadata
     id="metadata845">
    <rdf:RDF>
      <cc:Work
         rdf:about="">
        <dc:format>image/svg+xml</dc:format>
        <dc:type
           rdf:resource="http://purl.org/dc/dcmitype/StillImage" />
        <dc:title></dc:title>
      </cc:Work>
    </rdf:RDF>
  </metadata>
  <g
     inkscape:label="Calque 1"
     inkscape:groupmode="layer"
     id="layer1"
     transform="translate(-20.511335,-14.456674)">
    <rect
       style="fill:#88c0d0;fill-opacity:1;stroke-width:0.199169;filter:url(#filter1419)"
       id="rect10-3"
       width="121.71831"
       height="26.556513"
       x="-180.92949"
       y="45.196293"
       ry="10.993217"
       transform="rotate(59.71086,-42.299295,225.467)" />
    <rect
       style="fill:#88c0d0;fill-opacity:1;stroke-width:0.199169;filter:url(#filter1423)"
       id="rect10-3-3"
       width="121.71831"
       height="26.556513"
       x="-94.209503"
       y="77.375923"
       ry="10.993217"
       transform="rotate(119.71086,43.948797,124.33873)" />
  </g>
</svg>
